{
    "niv": {
        "branch": "master",
        "description": "Easy dependency management for Nix projects",
        "homepage": "https://github.com/nmattia/niv",
        "owner": "nmattia",
        "repo": "niv",
        "rev": "98c74a80934123cb4c3bf3314567f67311eb711a",
        "sha256": "1w8n54hapd4x9f1am33icvngkqns7m3hl9yair38yqq08ffwg0kn",
        "type": "tarball",
        "url": "https://github.com/nmattia/niv/archive/98c74a80934123cb4c3bf3314567f67311eb711a.tar.gz",
        "url_template": "https://github.com/<owner>/<repo>/archive/<rev>.tar.gz"
    },
    "nixpkgs": {
        "branch": "nixpkgs-unstable",
        "description": "A read-only mirror of NixOS/nixpkgs tracking the released channels. Send issues and PRs to",
        "homepage": "https://github.com/NixOS/nixpkgs",
        "owner": "NixOS",
        "repo": "nixpkgs-channels",
        "rev": "13e7a3e11272159b9b1fc41ec67f53c1088412ff",
        "sha256": "1d6byw99i4wjwdz501r6b12i8nifwl86gjd43cjvg8f2d78fazpg",
        "type": "tarball",
        "url": "https://github.com/NixOS/nixpkgs-channels/archive/13e7a3e11272159b9b1fc41ec67f53c1088412ff.tar.gz",
        "url_template": "https://github.com/<owner>/<repo>/archive/<rev>.tar.gz"
    }
}
